// Jest Snapshot v1, https://goo.gl/fbAQLP

exports[`FormList renders as expected handles no children 1`] = `
<Button
  as="button"
  color="yellow"
  onClick={[Function]}
  type="button"
>
  Add item
</Button>
`;

exports[`FormList renders as expected render matches snapshot 1`] = `
Array [
  <Grid
    key=".$Hello"
  >
    <GridRow
      columns={2}
    >
      <GridColumn
        width={14}
      >
        <p
          key="Hello"
        >
          Hello
        </p>
      </GridColumn>
      <GridColumn
        width={2}
      >
        <Button
          as="button"
          color="red"
          icon={true}
          onClick={[Function]}
          type="button"
        >
          <Icon
            as="i"
            name="minus"
          />
        </Button>
      </GridColumn>
    </GridRow>
  </Grid>,
  <Grid
    key=".$World"
  >
    <GridRow
      columns={2}
    >
      <GridColumn
        width={14}
      >
        <p
          key="World"
        >
          World
        </p>
      </GridColumn>
      <GridColumn
        width={2}
      >
        <Button
          as="button"
          color="green"
          icon={true}
          onClick={[Function]}
          type="button"
        >
          <Icon
            as="i"
            name="plus"
          />
        </Button>
      </GridColumn>
    </GridRow>
  </Grid>,
]
`;
