// Jest Snapshot v1, https://goo.gl/fbAQLP

exports[`Carousel renders as expected Render matches snapshot 1`] = `
<Segment
  className="carousel"
  onMouseEnter={[Function]}
  onMouseLeave={[Function]}
  style={
    Object {
      "background": "white",
      "paddingBottom": 0,
      "paddingTop": 0,
    }
  }
  vertical={true}
>
  <CSSTransition
    classNames="carousel-slide"
    in={true}
    onEntered={[Function]}
    onExited={[Function]}
    timeout={1}
  >
    <div
      className="carousel-slide"
      style={
        Object {
          "transition": "all 1ms ease-in-out",
        }
      }
    >
      <h1
        key=".$Slide #1"
      >
        Slide #1
      </h1>
    </div>
  </CSSTransition>
  <div
    style={
      Object {
        "bottom": 0,
        "position": "absolute",
        "width": "100%",
        "zIndex": 2,
      }
    }
  >
    <Segment
      basic={true}
      textAlign="center"
    >
      <Label
        color="black"
        key=".$Slide #1"
        onClick={[Function]}
        style={
          Object {
            "cursor": "pointer",
            "minWidth": "3rem",
          }
        }
      />
      <Label
        color="grey"
        key=".$Slide #2"
        onClick={[Function]}
        style={
          Object {
            "cursor": "pointer",
            "minWidth": "3rem",
          }
        }
      />
      <Label
        color="grey"
        key=".$Slide #3"
        onClick={[Function]}
        style={
          Object {
            "cursor": "pointer",
            "minWidth": "3rem",
          }
        }
      />
      <Label
        color="grey"
        key=".$Slide #4"
        onClick={[Function]}
        style={
          Object {
            "cursor": "pointer",
            "minWidth": "3rem",
          }
        }
      />
      <Label
        color="grey"
        key=".$Slide #5"
        onClick={[Function]}
        style={
          Object {
            "cursor": "pointer",
            "minWidth": "3rem",
          }
        }
      />
    </Segment>
  </div>
</Segment>
`;
