// Jest Snapshot v1, https://goo.gl/fbAQLP

exports[`<InputSubmit /> renders 1`] = `
<InputSubmit
  initialValue="Yolo, swag!"
  onCancel={[MockFunction]}
  onSave={[MockFunction]}
>
  <FormInput
    action={false}
    as={[Function]}
    control={[Function]}
    fluid={true}
    label=""
    onChange={[Function]}
    onClick={[Function]}
    placeholder="Edit"
    value="Yolo, swag!"
  >
    <FormField
      action={false}
      control={[Function]}
      fluid={true}
      label=""
      onChange={[Function]}
      onClick={[Function]}
      placeholder="Edit"
      value="Yolo, swag!"
    >
      <div
        className="field"
      >
        <label />
        <Input
          action={false}
          aria-describedby={null}
          fluid={true}
          onChange={[Function]}
          onClick={[Function]}
          placeholder="Edit"
          type="text"
          value="Yolo, swag!"
        >
          <div
            className="ui fluid input"
          >
            <input
              aria-describedby={null}
              key=".0"
              onChange={[Function]}
              onClick={[Function]}
              placeholder="Edit"
              type="text"
              value="Yolo, swag!"
            />
          </div>
        </Input>
      </div>
    </FormField>
  </FormInput>
</InputSubmit>
`;
